@startuml

package V1.0{
 package Helper <<rectangle>> {
        package Management <<rectangle>> {
            package Sales <<rectangle>> {
                class OrderManagement {
                    + string createDateAndPaymentsMethodAggregateArray()
                }
            }
            package Files <<rectangle>> {
                class ExcelManagement {
                    + string arrayToXml()
                }
            }
        }
    }

    package controllers <<rectangle>> {
        package Adminhtml <<rectangle>> {
            package Order <<rectangle>> {
                class ReportManagement {
                    + string paymentsAmountsAction()
                    + string exportPaymentsAmountsExcelAction()
                }
            }
        }
    }
}

ReportManagement --> OrderManagement: create paymentsAmount array
ReportManagement --> ExcelManagement: arrayToXml

@enduml